{
  "project_info": {
    "project_number": "669482846637",
    "firebase_url": "https://nativescript-demo-f4ced.firebaseio.com",
    "project_id": "nativescript-demo-f4ced",
    "storage_bucket": "nativescript-demo-f4ced.appspot.com"
  },
  "client": [
    {
      "client_info": {
        "mobilesdk_app_id": "1:669482846637:android:bbed89a7ff852e5960b924",
        "android_client_info": {
          "package_name": "com.mpelaeza.demo"
        }
      },
      "oauth_client": [
        {
          "client_id": "669482846637-322ckbanos3asm40rpsvnv2aqcpk2420.apps.googleusercontent.com",
          "client_type": 3
        }
      ],
      "api_key": [
        {
          "current_key": "AIzaSyAjU7v9JiiLrKEZ9aqvE-ijMP3X-IHVA1g"
        }
      ],
      "services": {
        "appinvite_service": {
          "other_platform_oauth_client": [
            {
              "client_id": "669482846637-322ckbanos3asm40rpsvnv2aqcpk2420.apps.googleusercontent.com",
              "client_type": 3
            }
          ]
        }
      }
    }
  ],
  "configuration_version": "1"
}